{
	"info": {
		"_postman_id": "75c4bc46-4c35-4099-91ad-cf6acb88ee52",
		"name": "วรวิทย์ค้าหางาน Junior Java  Programmer และสมัครไม่สำเร็จ เพศไม่ตรงตามเงื่อนไข",
		"schema": "https://schema.getpostman.com/json/collection/v2.1.0/collection.json"
	},
	"item": [
		{
			"name": "ค้นหางานด้วย keyword ว่า \"Programmer\" และสมัครงานไม่สำเร็จ",
			"event": [
				{
					"listen": "test",
					"script": {
						"exec": [
							"pm.test(\"Status code is 200\", function () {\r",
							"    pm.response.to.have.status(200);\r",
							"});\r",
							"\r",
							"pm.test(\"Job 1 ต้องเป็น Python Programmer\", function () {\r",
							"    var jsonDate = pm.response.json();\r",
							"    pm.expect(jsonDate[0].name).to.eql(\" Python Programmer\");\r",
							"    pm.expect(jsonDate[0]._id).to.eql(1);\r",
							"});"
						],
						"type": "text/javascript"
					}
				}
			],
			"request": {
				"method": "GET",
				"header": [],
				"url": {
					"raw": "http://localhost:3000/jobPostings/search/Programmer",
					"protocol": "http",
					"host": [
						"localhost"
					],
					"port": "3000",
					"path": [
						"jobPostings",
						"search",
						"Programmer"
					]
				}
			},
			"response": []
		},
		{
			"name": "ดูรายละเอียดงาน ID:3 Junior Java  Programmer",
			"event": [
				{
					"listen": "test",
					"script": {
						"exec": [
							"pm.test(\"Status code is 200\", function () {\r",
							"    pm.response.to.have.status(200);\r",
							"});\r",
							"\r",
							"pm.test(\"Job ID ต้องเป็น 3\", function () {\r",
							"    var jsonDate = pm.response.json();\r",
							"    pm.expect(jsonDate._id).to.eql(3);\r",
							"});\r",
							"pm.test(\"ชื่อต้องเป็น Junior Java Programmer\", function () {\r",
							"    var jsonDate = pm.response.json();\r",
							"    pm.expect(jsonDate.name).to.eql(\" Junior Java Programmer\");\r",
							"});\r",
							"\r",
							"pm.test(\"Company ID ต้องเป็น 1\", function () {\r",
							"    var jsonDate = pm.response.json();\r",
							"    pm.expect(jsonDate.companyId).to.eql(1);\r",
							"});"
						],
						"type": "text/javascript"
					}
				}
			],
			"request": {
				"method": "GET",
				"header": [],
				"url": {
					"raw": "http://localhost:3000/jobPostings/3",
					"protocol": "http",
					"host": [
						"localhost"
					],
					"port": "3000",
					"path": [
						"jobPostings",
						"3"
					]
				}
			},
			"response": []
		},
		{
			"name": "วรวิทย์สมัครงาน Senior Java Programmer ไม่สำเร็จ",
			"event": [
				{
					"listen": "test",
					"script": {
						"exec": [
							"pm.test(\"Status code is 422\", function () {\r",
							"    pm.response.to.have.status(422);\r",
							"});\r",
							"\r",
							"pm.test(\"message Applied Job \", function () {\r",
							"    var jsonData = pm.response.json();\r",
							"    pm.expect(jsonData.message).to.eql(\"Applied Job\");\r",
							"});"
						],
						"type": "text/javascript"
					}
				}
			],
			"request": {
				"method": "POST",
				"header": [],
				"body": {
					"mode": "raw",
					"raw": "{\r\n   \" name\":\"Worawit\",\r\n    \"jobPostingId\":1,\r\n    \"age\":28,\r\n    \"gender\":1,\r\n    \"experience\":2,\r\n    \"detail\":{}\r\n}",
					"options": {
						"raw": {
							"language": "json"
						}
					}
				},
				"url": {
					"raw": "http://localhost:3000/jobPostings/3/apply/",
					"protocol": "http",
					"host": [
						"localhost"
					],
					"port": "3000",
					"path": [
						"jobPostings",
						"3",
						"apply",
						""
					]
				}
			},
			"response": []
		}
	]
}